{
    "Version": "2012-10-17",
    "Statement": [
        {
            "Sid": "",
            "Effect": "Allow",
            "Principal": {
                "Service": [
                    "ec2.amazonaws.com.cn"
                ]
            },
            "Action": "sts:AssumeRole"
        }
    ]
}